{
  "project_info": {
    "project_number": "77577885253",
    "project_id": "movie-656b6",
    "storage_bucket": "movie-656b6.appspot.com"
  },
  "client": [
    {
      "client_info": {
        "mobilesdk_app_id": "1:77577885253:android:5b622ec6b8477c4a86352c",
        "android_client_info": {
          "package_name": "com.example.movies"
        }
      },
      "oauth_client": [
        {
          "client_id": "77577885253-2nkhe529mel6nis50n65a72meg2ufgtg.apps.googleusercontent.com",
          "client_type": 3
        }
      ],
      "api_key": [
        {
          "current_key": "AIzaSyAdiAGDUHrjjsyRieTH8_eiv01FcbmbfGs"
        }
      ],
      "services": {
        "appinvite_service": {
          "other_platform_oauth_client": [
            {
              "client_id": "77577885253-2nkhe529mel6nis50n65a72meg2ufgtg.apps.googleusercontent.com",
              "client_type": 3
            }
          ]
        }
      }
    }
  ],
  "configuration_version": "1"
}